{
	"info": {
		"_postman_id": "63447c6d-6679-4d09-b650-ca1f7a608c4a",
		"name": "API Entregable 2",
		"schema": "https://schema.getpostman.com/json/collection/v2.1.0/collection.json"
	},
	"item": [
		{
			"name": "Lista de todos los Productos con todos sus datos",
			"request": {
				"method": "GET",
				"header": [],
				"url": {
					"raw": "{{API_ENT2}}/productos",
					"host": [
						"{{API_ENT2}}"
					],
					"path": [
						"productos"
					]
				}
			},
			"response": [
				{
					"name": "Lista Productos",
					"originalRequest": {
						"method": "GET",
						"header": [],
						"url": {
							"raw": "{{API_ENT2}}/productos",
							"host": [
								"{{API_ENT2}}"
							],
							"path": [
								"productos"
							]
						}
					},
					"status": "OK",
					"code": 200,
					"_postman_previewlanguage": "json",
					"header": [
						{
							"key": "Content-Type",
							"value": "application/json"
						},
						{
							"key": "Transfer-Encoding",
							"value": "chunked"
						},
						{
							"key": "Date",
							"value": "Wed, 19 May 2021 22:34:36 GMT"
						},
						{
							"key": "Keep-Alive",
							"value": "timeout=60"
						},
						{
							"key": "Connection",
							"value": "keep-alive"
						}
					],
					"cookie": [],
					"body": "[\n    {\n        \"id\": \"60a48d75e9f1a6033eb3c8b7\",\n        \"marca\": \"Pony\",\n        \"descripcion\": \"Zapatillas americanas\",\n        \"precio\": 237.55,\n        \"usuarios\": [\n            {\n                \"id\": \"Antonio\",\n                \"nombre\": \"Antonio Salazar\",\n                \"rol\": \"administrador\"\n            },\n            {\n                \"id\": \"Marcela\",\n                \"nombre\": \"Marcela Salazar Figueroa\",\n                \"rol\": \"consultor\"\n            }\n        ]\n    },\n    {\n        \"id\": \"60a4929f58da3b7e046210dc\",\n        \"marca\": \"Nike\",\n        \"descripcion\": \"Zapatillas\",\n        \"precio\": 408,\n        \"usuarios\": []\n    },\n    {\n        \"id\": \"60a499bfeb671c55c85082cb\",\n        \"marca\": \"Fila\",\n        \"descripcion\": \"Zapatillas\",\n        \"precio\": 123,\n        \"usuarios\": []\n    },\n    {\n        \"id\": \"60a49cec54b91220884c75a5\",\n        \"marca\": \"Nike\",\n        \"descripcion\": \"Zapatillas\",\n        \"precio\": 408,\n        \"usuarios\": [\n            {\n                \"id\": \"Felipe\",\n                \"nombre\": \"Felipe Diaz\",\n                \"rol\": \"admin\"\n            },\n            {\n                \"id\": \"Judith\",\n                \"nombre\": \"Judith Sosa\",\n                \"rol\": \"usuario\"\n            }\n        ]\n    }\n]"
				}
			]
		},
		{
			"name": "Datos de un Producto por su id",
			"request": {
				"method": "GET",
				"header": [],
				"url": {
					"raw": "{{API_ENT2}}/productos/60a48d75e9f1a6033eb3c8b7",
					"host": [
						"{{API_ENT2}}"
					],
					"path": [
						"productos",
						"60a48d75e9f1a6033eb3c8b7"
					]
				}
			},
			"response": [
				{
					"name": "Lista Producto por id",
					"originalRequest": {
						"method": "GET",
						"header": [],
						"url": {
							"raw": "{{API_ENT2}}/productos/60a48d75e9f1a6033eb3c8b7",
							"host": [
								"{{API_ENT2}}"
							],
							"path": [
								"productos",
								"60a48d75e9f1a6033eb3c8b7"
							]
						}
					},
					"status": "OK",
					"code": 200,
					"_postman_previewlanguage": "json",
					"header": [
						{
							"key": "Content-Type",
							"value": "application/json"
						},
						{
							"key": "Transfer-Encoding",
							"value": "chunked"
						},
						{
							"key": "Date",
							"value": "Wed, 19 May 2021 22:35:14 GMT"
						},
						{
							"key": "Keep-Alive",
							"value": "timeout=60"
						},
						{
							"key": "Connection",
							"value": "keep-alive"
						}
					],
					"cookie": [],
					"body": "{\n    \"id\": \"60a48d75e9f1a6033eb3c8b7\",\n    \"marca\": \"Pony\",\n    \"descripcion\": \"Zapatillas americanas\",\n    \"precio\": 237.55,\n    \"usuarios\": [\n        {\n            \"id\": \"Antonio\",\n            \"nombre\": \"Antonio Salazar\",\n            \"rol\": \"administrador\"\n        },\n        {\n            \"id\": \"Marcela\",\n            \"nombre\": \"Marcela Salazar Figueroa\",\n            \"rol\": \"consultor\"\n        }\n    ]\n}"
				}
			]
		},
		{
			"name": "Lista de todos los Usuarios de un Producto por su id",
			"request": {
				"method": "GET",
				"header": [],
				"url": {
					"raw": "{{API_ENT2}}/productos/60a48d75e9f1a6033eb3c8b7/usuarios",
					"host": [
						"{{API_ENT2}}"
					],
					"path": [
						"productos",
						"60a48d75e9f1a6033eb3c8b7",
						"usuarios"
					]
				}
			},
			"response": [
				{
					"name": "Lista de todos los Usuarios de un Producto por su id",
					"originalRequest": {
						"method": "GET",
						"header": [],
						"url": {
							"raw": "{{API_ENT2}}/productos/60a48d75e9f1a6033eb3c8b7/usuarios",
							"host": [
								"{{API_ENT2}}"
							],
							"path": [
								"productos",
								"60a48d75e9f1a6033eb3c8b7",
								"usuarios"
							]
						}
					},
					"status": "OK",
					"code": 200,
					"_postman_previewlanguage": "json",
					"header": [
						{
							"key": "Content-Type",
							"value": "application/json"
						},
						{
							"key": "Transfer-Encoding",
							"value": "chunked"
						},
						{
							"key": "Date",
							"value": "Wed, 19 May 2021 22:35:41 GMT"
						},
						{
							"key": "Keep-Alive",
							"value": "timeout=60"
						},
						{
							"key": "Connection",
							"value": "keep-alive"
						}
					],
					"cookie": [],
					"body": "[\n    {\n        \"id\": \"Antonio\",\n        \"nombre\": \"Antonio Salazar\",\n        \"rol\": \"administrador\"\n    },\n    {\n        \"id\": \"Marcela\",\n        \"nombre\": \"Marcela Salazar Figueroa\",\n        \"rol\": \"consultor\"\n    }\n]"
				}
			]
		},
		{
			"name": "Agregar Producto sin usuarios",
			"request": {
				"method": "POST",
				"header": [],
				"body": {
					"mode": "raw",
					"raw": "{\r\n    \"marca\" : \"Asics\",\r\n    \"descripcion\" : \"Zapatillas\",\r\n    \"precio\" : 499.00\r\n\r\n}",
					"options": {
						"raw": {
							"language": "json"
						}
					}
				},
				"url": {
					"raw": "{{API_ENT2}}/productos",
					"host": [
						"{{API_ENT2}}"
					],
					"path": [
						"productos"
					]
				}
			},
			"response": [
				{
					"name": "Agregar Producto sin usuarios",
					"originalRequest": {
						"method": "POST",
						"header": [],
						"body": {
							"mode": "raw",
							"raw": "{\r\n    \"marca\" : \"Asics\",\r\n    \"descripcion\" : \"Zapatillas\",\r\n    \"precio\" : 499.00\r\n\r\n}",
							"options": {
								"raw": {
									"language": "json"
								}
							}
						},
						"url": {
							"raw": "{{API_ENT2}}/productos",
							"host": [
								"{{API_ENT2}}"
							],
							"path": [
								"productos"
							]
						}
					},
					"status": "Created",
					"code": 201,
					"_postman_previewlanguage": "json",
					"header": [
						{
							"key": "Content-Type",
							"value": "application/json"
						},
						{
							"key": "Transfer-Encoding",
							"value": "chunked"
						},
						{
							"key": "Date",
							"value": "Wed, 19 May 2021 22:36:11 GMT"
						},
						{
							"key": "Keep-Alive",
							"value": "timeout=60"
						},
						{
							"key": "Connection",
							"value": "keep-alive"
						}
					],
					"cookie": [],
					"body": "{\n    \"id\": \"60a592db5ec36f53494c1444\",\n    \"marca\": \"Asics\",\n    \"descripcion\": \"Zapatillas\",\n    \"precio\": 499,\n    \"usuarios\": []\n}"
				}
			]
		},
		{
			"name": "Agregar Producto con usuarios",
			"request": {
				"method": "POST",
				"header": [],
				"body": {
					"mode": "raw",
					"raw": "{\r\n    \"marca\" : \"Fila\",\r\n    \"descripcion\" : \"Zapatillas\",\r\n    \"precio\" : 430.00,\r\n    \"usuarios\" : [{\r\n        \"id\":\"Felipe\",\r\n        \"nombre\":\"Felipe Diaz\",\r\n        \"rol\":\"admin\"\r\n    },{\r\n        \"id\":\"Judith\",\r\n        \"nombre\":\"Judith Sosa\",\r\n        \"rol\":\"usuario\"\r\n    }\r\n    ]\r\n}",
					"options": {
						"raw": {
							"language": "json"
						}
					}
				},
				"url": {
					"raw": "{{API_ENT2}}/productos",
					"host": [
						"{{API_ENT2}}"
					],
					"path": [
						"productos"
					]
				}
			},
			"response": [
				{
					"name": "Agregar Producto con usuarios",
					"originalRequest": {
						"method": "POST",
						"header": [],
						"body": {
							"mode": "raw",
							"raw": "{\r\n    \"marca\" : \"Fila\",\r\n    \"descripcion\" : \"Zapatillas\",\r\n    \"precio\" : 430.00,\r\n    \"usuarios\" : [{\r\n        \"id\":\"Felipe\",\r\n        \"nombre\":\"Felipe Diaz\",\r\n        \"rol\":\"admin\"\r\n    },{\r\n        \"id\":\"Judith\",\r\n        \"nombre\":\"Judith Sosa\",\r\n        \"rol\":\"usuario\"\r\n    }\r\n    ]\r\n}",
							"options": {
								"raw": {
									"language": "json"
								}
							}
						},
						"url": {
							"raw": "{{API_ENT2}}/productos",
							"host": [
								"{{API_ENT2}}"
							],
							"path": [
								"productos"
							]
						}
					},
					"status": "Created",
					"code": 201,
					"_postman_previewlanguage": "json",
					"header": [
						{
							"key": "Content-Type",
							"value": "application/json"
						},
						{
							"key": "Transfer-Encoding",
							"value": "chunked"
						},
						{
							"key": "Date",
							"value": "Wed, 19 May 2021 22:36:55 GMT"
						},
						{
							"key": "Keep-Alive",
							"value": "timeout=60"
						},
						{
							"key": "Connection",
							"value": "keep-alive"
						}
					],
					"cookie": [],
					"body": "{\n    \"id\": \"60a593075ec36f53494c1445\",\n    \"marca\": \"Fila\",\n    \"descripcion\": \"Zapatillas\",\n    \"precio\": 430,\n    \"usuarios\": [\n        {\n            \"id\": \"Felipe\",\n            \"nombre\": \"Felipe Diaz\",\n            \"rol\": \"admin\"\n        },\n        {\n            \"id\": \"Judith\",\n            \"nombre\": \"Judith Sosa\",\n            \"rol\": \"usuario\"\n        }\n    ]\n}"
				}
			]
		},
		{
			"name": "Reemplazar Producto y usuarios",
			"request": {
				"method": "PUT",
				"header": [],
				"body": {
					"mode": "raw",
					"raw": "{\r\n    \"marca\" : \"Adidas\",\r\n    \"descripcion\" : \"Zapatillas americanas\",\r\n    \"precio\" : 999.55,\r\n    \"usuarios\" : [{\r\n        \"id\":\"Antonio\",\r\n        \"nombre\":\"Antonio Salazar\",\r\n        \"rol\":\"administrador\"\r\n    },{\r\n        \"id\":\"Marcela\",\r\n        \"nombre\":\"Marcela Salazar Figueroa\",\r\n        \"rol\":\"consultor\"\r\n    }\r\n    ]\r\n}",
					"options": {
						"raw": {
							"language": "json"
						}
					}
				},
				"url": {
					"raw": "{{API_ENT2}}/productos/60a48d75e9f1a6033eb3c8b7",
					"host": [
						"{{API_ENT2}}"
					],
					"path": [
						"productos",
						"60a48d75e9f1a6033eb3c8b7"
					]
				}
			},
			"response": [
				{
					"name": "Reemplazar Producto y usuarios",
					"originalRequest": {
						"method": "PUT",
						"header": [],
						"body": {
							"mode": "raw",
							"raw": "{\r\n    \"marca\" : \"Adidas\",\r\n    \"descripcion\" : \"Zapatillas americanas\",\r\n    \"precio\" : 999.55,\r\n    \"usuarios\" : [{\r\n        \"id\":\"Antonio\",\r\n        \"nombre\":\"Antonio Salazar\",\r\n        \"rol\":\"administrador\"\r\n    },{\r\n        \"id\":\"Marcela\",\r\n        \"nombre\":\"Marcela Salazar Figueroa\",\r\n        \"rol\":\"consultor\"\r\n    }\r\n    ]\r\n}",
							"options": {
								"raw": {
									"language": "json"
								}
							}
						},
						"url": {
							"raw": "{{API_ENT2}}/productos/60a48d75e9f1a6033eb3c8b7",
							"host": [
								"{{API_ENT2}}"
							],
							"path": [
								"productos",
								"60a48d75e9f1a6033eb3c8b7"
							]
						}
					},
					"status": "OK",
					"code": 200,
					"_postman_previewlanguage": "json",
					"header": [
						{
							"key": "Content-Type",
							"value": "application/json"
						},
						{
							"key": "Transfer-Encoding",
							"value": "chunked"
						},
						{
							"key": "Date",
							"value": "Wed, 19 May 2021 22:37:50 GMT"
						},
						{
							"key": "Keep-Alive",
							"value": "timeout=60"
						},
						{
							"key": "Connection",
							"value": "keep-alive"
						}
					],
					"cookie": [],
					"body": "{\n    \"id\": \"60a48d75e9f1a6033eb3c8b7\",\n    \"marca\": \"Adidas\",\n    \"descripcion\": \"Zapatillas americanas\",\n    \"precio\": 999.55,\n    \"usuarios\": [\n        {\n            \"id\": \"Antonio\",\n            \"nombre\": \"Antonio Salazar\",\n            \"rol\": \"administrador\"\n        },\n        {\n            \"id\": \"Marcela\",\n            \"nombre\": \"Marcela Salazar Figueroa\",\n            \"rol\": \"consultor\"\n        }\n    ]\n}"
				}
			]
		},
		{
			"name": "Reemplazar Producto",
			"request": {
				"method": "PUT",
				"header": [],
				"body": {
					"mode": "raw",
					"raw": "{\r\n    \"marca\" : \"ISAC\",\r\n    \"descripcion\" : \"Zapatillas americanas\",\r\n    \"precio\" : 99.55\r\n}",
					"options": {
						"raw": {
							"language": "json"
						}
					}
				},
				"url": {
					"raw": "{{API_ENT2}}/productos/60a48d75e9f1a6033eb3c8b7",
					"host": [
						"{{API_ENT2}}"
					],
					"path": [
						"productos",
						"60a48d75e9f1a6033eb3c8b7"
					]
				}
			},
			"response": [
				{
					"name": "Reemplazar Producto",
					"originalRequest": {
						"method": "PUT",
						"header": [],
						"body": {
							"mode": "raw",
							"raw": "{\r\n    \"marca\" : \"ISAC\",\r\n    \"descripcion\" : \"Zapatillas americanas\",\r\n    \"precio\" : 99.55\r\n}",
							"options": {
								"raw": {
									"language": "json"
								}
							}
						},
						"url": {
							"raw": "{{API_ENT2}}/productos/60a48d75e9f1a6033eb3c8b7",
							"host": [
								"{{API_ENT2}}"
							],
							"path": [
								"productos",
								"60a48d75e9f1a6033eb3c8b7"
							]
						}
					},
					"status": "OK",
					"code": 200,
					"_postman_previewlanguage": "json",
					"header": [
						{
							"key": "Content-Type",
							"value": "application/json"
						},
						{
							"key": "Transfer-Encoding",
							"value": "chunked"
						},
						{
							"key": "Date",
							"value": "Wed, 19 May 2021 22:38:41 GMT"
						},
						{
							"key": "Keep-Alive",
							"value": "timeout=60"
						},
						{
							"key": "Connection",
							"value": "keep-alive"
						}
					],
					"cookie": [],
					"body": "{\n    \"id\": \"60a48d75e9f1a6033eb3c8b7\",\n    \"marca\": \"ISAC\",\n    \"descripcion\": \"Zapatillas americanas\",\n    \"precio\": 99.55,\n    \"usuarios\": []\n}"
				}
			]
		},
		{
			"name": "Reemplazar solo Usuarios",
			"request": {
				"method": "PUT",
				"header": [],
				"body": {
					"mode": "raw",
					"raw": "{\r\n    \"usuarios\" : [{\r\n        \"id\":\"Antonio\",\r\n        \"nombre\":\"Antonio Salazar\",\r\n        \"rol\":\"administrador\"\r\n    },{\r\n        \"id\":\"Marcela\",\r\n        \"nombre\":\"Marcela Salazar Figueroa\",\r\n        \"rol\":\"consultor\"\r\n    }\r\n    ]\r\n}",
					"options": {
						"raw": {
							"language": "json"
						}
					}
				},
				"url": {
					"raw": "{{API_ENT2}}/productos/60a49cec54b91220884c75a5",
					"host": [
						"{{API_ENT2}}"
					],
					"path": [
						"productos",
						"60a49cec54b91220884c75a5"
					]
				}
			},
			"response": [
				{
					"name": "Reemplazar solo Usuarios",
					"originalRequest": {
						"method": "PUT",
						"header": [],
						"body": {
							"mode": "raw",
							"raw": "{\r\n    \"usuarios\" : [{\r\n        \"id\":\"Antonio\",\r\n        \"nombre\":\"Antonio Salazar\",\r\n        \"rol\":\"administrador\"\r\n    },{\r\n        \"id\":\"Marcela\",\r\n        \"nombre\":\"Marcela Salazar Figueroa\",\r\n        \"rol\":\"consultor\"\r\n    }\r\n    ]\r\n}",
							"options": {
								"raw": {
									"language": "json"
								}
							}
						},
						"url": {
							"raw": "{{API_ENT2}}/productos/60a49cec54b91220884c75a5",
							"host": [
								"{{API_ENT2}}"
							],
							"path": [
								"productos",
								"60a49cec54b91220884c75a5"
							]
						}
					},
					"status": "OK",
					"code": 200,
					"_postman_previewlanguage": "json",
					"header": [
						{
							"key": "Content-Type",
							"value": "application/json"
						},
						{
							"key": "Transfer-Encoding",
							"value": "chunked"
						},
						{
							"key": "Date",
							"value": "Wed, 19 May 2021 22:39:22 GMT"
						},
						{
							"key": "Keep-Alive",
							"value": "timeout=60"
						},
						{
							"key": "Connection",
							"value": "keep-alive"
						}
					],
					"cookie": [],
					"body": "{\n    \"id\": \"60a49cec54b91220884c75a5\",\n    \"marca\": null,\n    \"descripcion\": null,\n    \"precio\": 0,\n    \"usuarios\": [\n        {\n            \"id\": \"Antonio\",\n            \"nombre\": \"Antonio Salazar\",\n            \"rol\": \"administrador\"\n        },\n        {\n            \"id\": \"Marcela\",\n            \"nombre\": \"Marcela Salazar Figueroa\",\n            \"rol\": \"consultor\"\n        }\n    ]\n}"
				}
			]
		},
		{
			"name": "Borrar Producto",
			"request": {
				"method": "DELETE",
				"header": [],
				"body": {
					"mode": "raw",
					"raw": "{\r\n    \"marca\" : \"Adidas\",\r\n    \"descripcion\" : \"Zapatillas\",\r\n    \"precio\" : 189.00\r\n\r\n}",
					"options": {
						"raw": {
							"language": "json"
						}
					}
				},
				"url": {
					"raw": "{{API_ENT2}}/productos/60a49cec54b91220884c75a5",
					"host": [
						"{{API_ENT2}}"
					],
					"path": [
						"productos",
						"60a49cec54b91220884c75a5"
					]
				}
			},
			"response": [
				{
					"name": "Borrar Producto",
					"originalRequest": {
						"method": "DELETE",
						"header": [],
						"body": {
							"mode": "raw",
							"raw": "{\r\n    \"marca\" : \"Adidas\",\r\n    \"descripcion\" : \"Zapatillas\",\r\n    \"precio\" : 189.00\r\n\r\n}",
							"options": {
								"raw": {
									"language": "json"
								}
							}
						},
						"url": {
							"raw": "{{API_ENT2}}/productos/60a49cec54b91220884c75a5",
							"host": [
								"{{API_ENT2}}"
							],
							"path": [
								"productos",
								"60a49cec54b91220884c75a5"
							]
						}
					},
					"status": "No Content",
					"code": 204,
					"_postman_previewlanguage": "plain",
					"header": [
						{
							"key": "Date",
							"value": "Wed, 19 May 2021 22:40:07 GMT"
						},
						{
							"key": "Keep-Alive",
							"value": "timeout=60"
						},
						{
							"key": "Connection",
							"value": "keep-alive"
						}
					],
					"cookie": [],
					"body": null
				}
			]
		}
	]
}